%YAML 1.1
%TAG !u! tag:unity3d.com,2011:
--- !u!29 &1
OcclusionCullingSettings:
  m_ObjectHideFlags: 0
  serializedVersion: 2
  m_OcclusionBakeSettings:
    smallestOccluder: 5
    smallestHole: 0.25
    backfaceThreshold: 100
  m_SceneGUID: 00000000000000000000000000000000
  m_OcclusionCullingData: {fileID: 0}
--- !u!104 &2
RenderSettings:
  m_ObjectHideFlags: 0
  serializedVersion: 9
  m_Fog: 0
  m_FogColor: {r: 0.5, g: 0.5, b: 0.5, a: 1}
  m_FogMode: 3
  m_FogDensity: 0.01
  m_LinearFogStart: 0
  m_LinearFogEnd: 300
  m_AmbientSkyColor: {r: 0.212, g: 0.227, b: 0.259, a: 1}
  m_AmbientEquatorColor: {r: 0.114, g: 0.125, b: 0.133, a: 1}
  m_AmbientGroundColor: {r: 0.047, g: 0.043, b: 0.035, a: 1}
  m_AmbientIntensity: 1
  m_AmbientMode: 0
  m_SubtractiveShadowColor: {r: 0.42, g: 0.478, b: 0.627, a: 1}
  m_SkyboxMaterial: {fileID: 10304, guid: 0000000000000000f000000000000000, type: 0}
  m_HaloStrength: 0.5
  m_FlareStrength: 1
  m_FlareFadeSpeed: 3
  m_HaloTexture: {fileID: 0}
  m_SpotCookie: {fileID: 10001, guid: 0000000000000000e000000000000000, type: 0}
  m_DefaultReflectionMode: 0
  m_DefaultReflectionResolution: 128
  m_ReflectionBounces: 1
  m_ReflectionIntensity: 1
  m_CustomReflection: {fileID: 0}
  m_Sun: {fileID: 0}
  m_IndirectSpecularColor: {r: 0.44221038, g: 0.4912266, b: 0.5711218, a: 1}
  m_UseRadianceAmbientProbe: 0
--- !u!157 &3
LightmapSettings:
  m_ObjectHideFlags: 0
  serializedVersion: 11
  m_GIWorkflowMode: 0
  m_GISettings:
    serializedVersion: 2
    m_BounceScale: 1
    m_IndirectOutputScale: 1
    m_AlbedoBoost: 1
    m_EnvironmentLightingMode: 0
    m_EnableBakedLightmaps: 1
    m_EnableRealtimeLightmaps: 0
  m_LightmapEditorSettings:
    serializedVersion: 10
    m_Resolution: 2
    m_BakeResolution: 10
    m_AtlasSize: 512
    m_AO: 0
    m_AOMaxDistance: 1
    m_CompAOExponent: 1
    m_CompAOExponentDirect: 0
    m_Padding: 2
    m_LightmapParameters: {fileID: 0}
    m_LightmapsBakeMode: 1
    m_TextureCompression: 1
    m_FinalGather: 0
    m_FinalGatherFiltering: 1
    m_FinalGatherRayCount: 256
    m_ReflectionCompression: 2
    m_MixedBakeMode: 2
    m_BakeBackend: 1
    m_PVRSampling: 1
    m_PVRDirectSampleCount: 32
    m_PVRSampleCount: 256
    m_PVRBounces: 2
    m_PVRFilterTypeDirect: 0
    m_PVRFilterTypeIndirect: 0
    m_PVRFilterTypeAO: 0
    m_PVRFilteringMode: 1
    m_PVRCulling: 1
    m_PVRFilteringGaussRadiusDirect: 1
    m_PVRFilteringGaussRadiusIndirect: 5
    m_PVRFilteringGaussRadiusAO: 2
    m_PVRFilteringAtrousPositionSigmaDirect: 0.5
    m_PVRFilteringAtrousPositionSigmaIndirect: 2
    m_PVRFilteringAtrousPositionSigmaAO: 1
    m_ShowResolutionOverlay: 1
  m_LightingDataAsset: {fileID: 0}
  m_UseShadowmask: 1
--- !u!196 &4
NavMeshSettings:
  serializedVersion: 2
  m_ObjectHideFlags: 0
  m_BuildSettings:
    serializedVersion: 2
    agentTypeID: 0
    agentRadius: 0.5
    agentHeight: 2
    agentSlope: 45
    agentClimb: 0.4
    ledgeDropHeight: 0
    maxJumpAcrossDistance: 0
    minRegionArea: 2
    manualCellSize: 0
    cellSize: 0.16666667
    manualTileSize: 0
    tileSize: 256
    accuratePlacement: 0
    debug:
      m_Flags: 0
  m_NavMeshData: {fileID: 0}
--- !u!1001 &1078143839
PrefabInstance:
  m_ObjectHideFlags: 0
  serializedVersion: 2
  m_Modification:
    m_TransformParent: {fileID: 0}
    m_Modifications:
    - target: {fileID: 234059461600796696, guid: e6ff8e030db08a74e9f08e7d28766b10,
        type: 3}
      propertyPath: m_Name
      value: Directional light
      objectReference: {fileID: 0}
    - target: {fileID: 234059461600796697, guid: e6ff8e030db08a74e9f08e7d28766b10,
        type: 3}
      propertyPath: m_LocalPosition.x
      value: 5.97
      objectReference: {fileID: 0}
    - target: {fileID: 234059461600796697, guid: e6ff8e030db08a74e9f08e7d28766b10,
        type: 3}
      propertyPath: m_LocalPosition.y
      value: 3.23
      objectReference: {fileID: 0}
    - target: {fileID: 234059461600796697, guid: e6ff8e030db08a74e9f08e7d28766b10,
        type: 3}
      propertyPath: m_LocalPosition.z
      value: 3.87
      objectReference: {fileID: 0}
    - target: {fileID: 234059461600796697, guid: e6ff8e030db08a74e9f08e7d28766b10,
        type: 3}
      propertyPath: m_LocalRotation.x
      value: 0.26239318
      objectReference: {fileID: 0}
    - target: {fileID: 234059461600796697, guid: e6ff8e030db08a74e9f08e7d28766b10,
        type: 3}
      propertyPath: m_LocalRotation.y
      value: 0.8089098
      objectReference: {fileID: 0}
    - target: {fileID: 234059461600796697, guid: e6ff8e030db08a74e9f08e7d28766b10,
        type: 3}
      propertyPath: m_LocalRotation.z
      value: -0.47142732
      objectReference: {fileID: 0}
    - target: {fileID: 234059461600796697, guid: e6ff8e030db08a74e9f08e7d28766b10,
        type: 3}
      propertyPath: m_LocalRotation.w
      value: 0.23360462
      objectReference: {fileID: 0}
    - target: {fileID: 234059461600796697, guid: e6ff8e030db08a74e9f08e7d28766b10,
        type: 3}
      propertyPath: m_RootOrder
      value: 1
      objectReference: {fileID: 0}
    - target: {fileID: 234059461600796697, guid: e6ff8e030db08a74e9f08e7d28766b10,
        type: 3}
      propertyPath: m_LocalEulerAnglesHint.x
      value: 117.71399
      objectReference: {fileID: 0}
    - target: {fileID: 234059461600796697, guid: e6ff8e030db08a74e9f08e7d28766b10,
        type: 3}
      propertyPath: m_LocalEulerAnglesHint.y
      value: 163.7
      objectReference: {fileID: 0}
    - target: {fileID: 234059461600796697, guid: e6ff8e030db08a74e9f08e7d28766b10,
        type: 3}
      propertyPath: m_LocalEulerAnglesHint.z
      value: 206.052
      objectReference: {fileID: 0}
    m_RemovedComponents: []
  m_SourcePrefab: {fileID: 100100000, guid: e6ff8e030db08a74e9f08e7d28766b10, type: 3}
--- !u!1001 &1540786098
PrefabInstance:
  m_ObjectHideFlags: 0
  serializedVersion: 2
  m_Modification:
    m_TransformParent: {fileID: 0}
    m_Modifications:
    - target: {fileID: 8190625133406394767, guid: 24bac8d7ea648e74cac0e84c84f4278c,
        type: 3}
      propertyPath: m_Name
      value: Main Camera
      objectReference: {fileID: 0}
    - target: {fileID: 8190625133406394762, guid: 24bac8d7ea648e74cac0e84c84f4278c,
        type: 3}
      propertyPath: m_LocalPosition.x
      value: 0
      objectReference: {fileID: 0}
    - target: {fileID: 8190625133406394762, guid: 24bac8d7ea648e74cac0e84c84f4278c,
        type: 3}
      propertyPath: m_LocalPosition.y
      value: 6.23
      objectReference: {fileID: 0}
    - target: {fileID: 8190625133406394762, guid: 24bac8d7ea648e74cac0e84c84f4278c,
        type: 3}
      propertyPath: m_LocalPosition.z
      value: -24.64
      objectReference: {fileID: 0}
    - target: {fileID: 8190625133406394762, guid: 24bac8d7ea648e74cac0e84c84f4278c,
        type: 3}
      propertyPath: m_LocalRotation.x
      value: -0.08715578
      objectReference: {fileID: 0}
    - target: {fileID: 8190625133406394762, guid: 24bac8d7ea648e74cac0e84c84f4278c,
        type: 3}
      propertyPath: m_LocalRotation.y
      value: 0.00000027981145
      objectReference: {fileID: 0}
    - target: {fileID: 8190625133406394762, guid: 24bac8d7ea648e74cac0e84c84f4278c,
        type: 3}
      propertyPath: m_LocalRotation.z
      value: -0.000000024480341
      objectReference: {fileID: 0}
    - target: {fileID: 8190625133406394762, guid: 24bac8d7ea648e74cac0e84c84f4278c,
        type: 3}
      propertyPath: m_LocalRotation.w
      value: -0.9961947
      objectReference: {fileID: 0}
    - target: {fileID: 8190625133406394762, guid: 24bac8d7ea648e74cac0e84c84f4278c,
        type: 3}
      propertyPath: m_RootOrder
      value: 0
      objectReference: {fileID: 0}
    - target: {fileID: 8190625133406394762, guid: 24bac8d7ea648e74cac0e84c84f4278c,
        type: 3}
      propertyPath: m_LocalEulerAnglesHint.x
      value: 10
      objectReference: {fileID: 0}
    - target: {fileID: 8190625133406394762, guid: 24bac8d7ea648e74cac0e84c84f4278c,
        type: 3}
      propertyPath: m_LocalEulerAnglesHint.y
      value: 179.99998
      objectReference: {fileID: 0}
    - target: {fileID: 8190625133406394762, guid: 24bac8d7ea648e74cac0e84c84f4278c,
        type: 3}
      propertyPath: m_LocalEulerAnglesHint.z
      value: 0
      objectReference: {fileID: 0}
    - target: {fileID: 8190625133406394763, guid: 24bac8d7ea648e74cac0e84c84f4278c,
        type: 3}
      propertyPath: far clip plane
      value: 500
      objectReference: {fileID: 0}
    - target: {fileID: 8190625133406394763, guid: 24bac8d7ea648e74cac0e84c84f4278c,
        type: 3}
      propertyPath: m_RenderingPath
      value: -1
      objectReference: {fileID: 0}
    - target: {fileID: 8190625133406394763, guid: 24bac8d7ea648e74cac0e84c84f4278c,
        type: 3}
      propertyPath: orthographic
      value: 0
      objectReference: {fileID: 0}
    m_RemovedComponents:
    - {fileID: 8190625133406394760, guid: 24bac8d7ea648e74cac0e84c84f4278c, type: 3}
  m_SourcePrefab: {fileID: 100100000, guid: 24bac8d7ea648e74cac0e84c84f4278c, type: 3}
--- !u!1001 &6633514193590081523
PrefabInstance:
  m_ObjectHideFlags: 0
  serializedVersion: 2
  m_Modification:
    m_TransformParent: {fileID: 0}
    m_Modifications:
    - target: {fileID: 6633514193533874150, guid: a8aaaf411be128d4ca93d034348d5c0b,
        type: 3}
      propertyPath: m_Name
      value: aluden
      objectReference: {fileID: 0}
    - target: {fileID: 6633514193534235590, guid: a8aaaf411be128d4ca93d034348d5c0b,
        type: 3}
      propertyPath: m_LocalPosition.x
      value: 0
      objectReference: {fileID: 0}
    - target: {fileID: 6633514193534235590, guid: a8aaaf411be128d4ca93d034348d5c0b,
        type: 3}
      propertyPath: m_LocalPosition.y
      value: 0
      objectReference: {fileID: 0}
    - target: {fileID: 6633514193534235590, guid: a8aaaf411be128d4ca93d034348d5c0b,
        type: 3}
      propertyPath: m_LocalPosition.z
      value: 0
      objectReference: {fileID: 0}
    - target: {fileID: 6633514193534235590, guid: a8aaaf411be128d4ca93d034348d5c0b,
        type: 3}
      propertyPath: m_LocalRotation.x
      value: 0
      objectReference: {fileID: 0}
    - target: {fileID: 6633514193534235590, guid: a8aaaf411be128d4ca93d034348d5c0b,
        type: 3}
      propertyPath: m_LocalRotation.y
      value: -1
      objectReference: {fileID: 0}
    - target: {fileID: 6633514193534235590, guid: a8aaaf411be128d4ca93d034348d5c0b,
        type: 3}
      propertyPath: m_LocalRotation.z
      value: 0
      objectReference: {fileID: 0}
    - target: {fileID: 6633514193534235590, guid: a8aaaf411be128d4ca93d034348d5c0b,
        type: 3}
      propertyPath: m_LocalRotation.w
      value: 0
      objectReference: {fileID: 0}
    - target: {fileID: 6633514193534235590, guid: a8aaaf411be128d4ca93d034348d5c0b,
        type: 3}
      propertyPath: m_RootOrder
      value: 2
      objectReference: {fileID: 0}
    - target: {fileID: 6633514193534235590, guid: a8aaaf411be128d4ca93d034348d5c0b,
        type: 3}
      propertyPath: m_LocalEulerAnglesHint.x
      value: 0
      objectReference: {fileID: 0}
    - target: {fileID: 6633514193534235590, guid: a8aaaf411be128d4ca93d034348d5c0b,
        type: 3}
      propertyPath: m_LocalEulerAnglesHint.y
      value: -180
      objectReference: {fileID: 0}
    - target: {fileID: 6633514193534235590, guid: a8aaaf411be128d4ca93d034348d5c0b,
        type: 3}
      propertyPath: m_LocalEulerAnglesHint.z
      value: 0
      objectReference: {fileID: 0}
    m_RemovedComponents: []
  m_SourcePrefab: {fileID: 100100000, guid: a8aaaf411be128d4ca93d034348d5c0b, type: 3}
