

- models

model file format is FBX in the pack
 34100 verts, 55958 tris

- textures 

   diffuse map
   2048 X 2048 X 1
   512 X  512 X 1

   lightmap 
   1024 X 1024 X 4


if you want to re bake light map,
you must activate 'Light' in the environment in the scene file.
and turn off Directional light_shd. 

If you have any questions feel free to hit me up on mail me at  2018studiojj@gmail.com
 


